^C:\USERS\PHONOMIA\FAVORITES\DESKTOP\PROGRAMACION3\JUEGOSFML\GAME\GAME2\DEBUG\APPLICATION.OBJ|C:\USERS\PHONOMIA\FAVORITES\DESKTOP\PROGRAMACION3\JUEGOSFML\GAME\GAME2\DEBUG\CREDITS_STATE.OBJ|C:\USERS\PHONOMIA\FAVORITES\DESKTOP\PROGRAMACION3\JUEGOSFML\GAME\GAME2\DEBUG\ENGINE.OBJ|C:\USERS\PHONOMIA\FAVORITES\DESKTOP\PROGRAMACION3\JUEGOSFML\GAME\GAME2\DEBUG\GAME_STATE.OBJ|C:\USERS\PHONOMIA\FAVORITES\DESKTOP\PROGRAMACION3\JUEGOSFML\GAME\GAME2\DEBUG\MAIN.OBJ|C:\USERS\PHONOMIA\FAVORITES\DESKTOP\PROGRAMACION3\JUEGOSFML\GAME\GAME2\DEBUG\MENU_STATE.OBJ|C:\USERS\PHONOMIA\FAVORITES\DESKTOP\PROGRAMACION3\JUEGOSFML\GAME\GAME2\DEBUG\PLAY_STATE.OBJ
/OUT:"C:\USERS\PHONOMIA\FAVORITES\DESKTOP\PROGRAMACION3\JUEGOSFML\GAME\DEBUG\GAME2.EXE" /INCREMENTAL /NOLOGO /LIBPATH:"C:\USERS\PHONOMIA\FAVORITES\DESKTOP\PROGRAMACION3\JUEGOSFML\GAME\SFML-2.4.2\LIB" "SFML-GRAPHICS-D.LIB" "SFML-WINDOW-D.LIB" "SFML-SYSTEM-D.LIB" "SFML-AUDIO-D.LIB" "SFML-MAIN-D.LIB" KERNEL32.LIB USER32.LIB GDI32.LIB WINSPOOL.LIB COMDLG32.LIB ADVAPI32.LIB SHELL32.LIB OLE32.LIB OLEAUT32.LIB UUID.LIB ODBC32.LIB ODBCCP32.LIB /MANIFEST /MANIFESTUAC:"level='asInvoker' uiAccess='false'" /manifest:embed /DEBUG /PDB:"C:\USERS\PHONOMIA\FAVORITES\DESKTOP\PROGRAMACION3\JUEGOSFML\GAME\DEBUG\GAME2.PDB" /SUBSYSTEM:CONSOLE /TLBID:1 /DYNAMICBASE /NXCOMPAT /IMPLIB:"C:\USERS\PHONOMIA\FAVORITES\DESKTOP\PROGRAMACION3\JUEGOSFML\GAME\DEBUG\GAME2.LIB" /MACHINE:X86 DEBUG\APPLICATION.OBJDEBUG\CREDITS_STATE.OBJDEBUG\ENGINE.OBJDEBUG\GAME_STATE.OBJDEBUG\MAIN.OBJDEBUG\MENU_STATE.OBJDEBUG\PLAY_STATE.OBJ
^C:\USERS\51\DOCUMENTS\JUEGOSFML\GAME\GAME2\DEBUG\APPLICATION.OBJ|C:\USERS\51\DOCUMENTS\JUEGOSFML\GAME\GAME2\DEBUG\CREDITS_STATE.OBJ|C:\USERS\51\DOCUMENTS\JUEGOSFML\GAME\GAME2\DEBUG\ENGINE.OBJ|C:\USERS\51\DOCUMENTS\JUEGOSFML\GAME\GAME2\DEBUG\GAME_STATE.OBJ|C:\USERS\51\DOCUMENTS\JUEGOSFML\GAME\GAME2\DEBUG\MAIN.OBJ|C:\USERS\51\DOCUMENTS\JUEGOSFML\GAME\GAME2\DEBUG\MENU_STATE.OBJ|C:\USERS\51\DOCUMENTS\JUEGOSFML\GAME\GAME2\DEBUG\PLAY_STATE.OBJ
/OUT:"C:\USERS\51\DOCUMENTS\JUEGOSFML\GAME\DEBUG\GAME2.EXE" /INCREMENTAL /NOLOGO /LIBPATH:"C:\USERS\51\DOCUMENTS\JUEGOSFML\GAME\SFML-2.4.2\LIB" "SFML-GRAPHICS-D.LIB" "SFML-WINDOW-D.LIB" "SFML-SYSTEM-D.LIB" "SFML-AUDIO-D.LIB" "SFML-MAIN-D.LIB" KERNEL32.LIB USER32.LIB GDI32.LIB WINSPOOL.LIB COMDLG32.LIB ADVAPI32.LIB SHELL32.LIB OLE32.LIB OLEAUT32.LIB UUID.LIB ODBC32.LIB ODBCCP32.LIB /MANIFEST /MANIFESTUAC:"level='asInvoker' uiAccess='false'" /manifest:embed /DEBUG /PDB:"C:\USERS\51\DOCUMENTS\JUEGOSFML\GAME\DEBUG\GAME2.PDB" /SUBSYSTEM:CONSOLE /TLBID:1 /DYNAMICBASE /NXCOMPAT /IMPLIB:"C:\USERS\51\DOCUMENTS\JUEGOSFML\GAME\DEBUG\GAME2.LIB" /MACHINE:X86 DEBUG\APPLICATION.OBJDEBUG\CREDITS_STATE.OBJDEBUG\ENGINE.OBJDEBUG\GAME_STATE.OBJDEBUG\MAIN.OBJDEBUG\MENU_STATE.OBJDEBUG\PLAY_STATE.OBJ
